{
  "images" : [
    {
      "idiom" : "universal",
      "scale" : "1x",
      "filename" : "ic_account_box_black_24dp_1x.png"
    },
    {
      "idiom" : "universal",
      "scale" : "2x",
      "filename" : "ic_account_box_black_24dp_2x.png"
    },
    {
      "idiom" : "universal",
      "scale" : "3x"
    }
  ],
  "info" : {
    "version" : 1,
    "author" : "xcode"
  }
}